{
  "new_entries": {
    "has_next": false,
    "page": 1,
    "results": []
  },
  "last_updated_data": "2024-06-21T03:21:20",
  "league": {
    "id": 633869,
    "name": "FPLMGM #4 LIGA SUPER",
    "created": "2023-07-29T05:39:00.118332Z",
    "closed": true,
    "max_entries": null,
    "league_type": "x",
    "scoring": "c",
    "admin_entry": 1034333,
    "start_event": 1,
    "code_privacy": "p",
    "has_cup": true,
    "cup_league": 2452913,
    "rank": null
  },
  "standings": {
    "results": [
      {
        "entry": 469327,
        "event_total": 58,
        "player_name": "Iqbal Hammadi",
        "rank": 1,
        "entry_name": "Bruno's Hooligans",
        "rank_sort": 1,
        "last_rank": 1,
        "total": 2503
      },
      {
        "entry": 874156,
        "event_total": 48,
        "player_name": "Fajar Arif",
        "rank": 2,
        "entry_name": "Eigen City FC",
        "rank_sort": 2,
        "last_rank": 2,
        "total": 2456
      },
      {
        "entry": 471950,
        "event_total": 82,
        "player_name": "Damar Ramdan",
        "rank": 3,
        "entry_name": "ENAQLO FC",
        "rank_sort": 3,
        "last_rank": 4,
        "total": 2435
      },
      {
        "entry": 490374,
        "event_total": 60,
        "player_name": "Riza Rayhan",
        "rank": 4,
        "entry_name": "The Strongest",
        "rank_sort": 4,
        "last_rank": 3,
        "total": 2420
      },
      {
        "entry": 1894963,
        "event_total": 75,
        "player_name": "Asdfg hjkl",
        "rank": 5,
        "entry_name": "Asdfghjkl",
        "rank_sort": 5,
        "last_rank": 5,
        "total": 2407
      },
      {
        "entry": 528752,
        "event_total": 56,
        "player_name": "Ahmad Husain",
        "rank": 6,
        "entry_name": "Maryam FC",
        "rank_sort": 6,
        "last_rank": 6,
        "total": 2384
      },
      {
        "entry": 440696,
        "event_total": 61,
        "player_name": "Natih Bernan",
        "rank": 7,
        "entry_name": "Nankatsu FC",
        "rank_sort": 7,
        "last_rank": 9,
        "total": 2380
      },
      {
        "entry": 5205650,
        "event_total": 55,
        "player_name": "Novan Lutfi",
        "rank": 8,
        "entry_name": "ArsenalTsunamiTrofi",
        "rank_sort": 8,
        "last_rank": 8,
        "total": 2378
      },
      {
        "entry": 5567229,
        "event_total": 50,
        "player_name": "Bagas Krisna",
        "rank": 9,
        "entry_name": "Nareswara FC",
        "rank_sort": 9,
        "last_rank": 7,
        "total": 2376
      },
      {
        "entry": 6246444,
        "event_total": 90,
        "player_name": "Robby Auzigni",
        "rank": 10,
        "entry_name": "Shinzui",
        "rank_sort": 10,
        "last_rank": 12,
        "total": 2359
      },
      {
        "entry": 4943542,
        "event_total": 56,
        "player_name": "Fahri Bonbon",
        "rank": 11,
        "entry_name": "Tjoklat FPL",
        "rank_sort": 11,
        "last_rank": 10,
        "total": 2351
      },
      {
        "entry": 2236622,
        "event_total": 45,
        "player_name": "Riyadh Candor",
        "rank": 12,
        "entry_name": "~ Eureka FC ~",
        "rank_sort": 12,
        "last_rank": 11,
        "total": 2339
      },
      {
        "entry": 228271,
        "event_total": 85,
        "player_name": "Febi Sanjaya",
        "rank": 13,
        "entry_name": "Cyumi",
        "rank_sort": 13,
        "last_rank": 14,
        "total": 2327
      },
      {
        "entry": 3056212,
        "event_total": 85,
        "player_name": "maWar Melati",
        "rank": 14,
        "entry_name": "mencoba sabar",
        "rank_sort": 14,
        "last_rank": 15,
        "total": 2303
      },
      {
        "entry": 758530,
        "event_total": 60,
        "player_name": "Burhan Abdurrahman",
        "rank": 15,
        "entry_name": "HMMM",
        "rank_sort": 15,
        "last_rank": 13,
        "total": 2302
      },
      {
        "entry": 1788201,
        "event_total": 60,
        "player_name": "Zicko Owalah",
        "rank": 16,
        "entry_name": "Kaiju FC",
        "rank_sort": 16,
        "last_rank": 16,
        "total": 2276
      },
      {
        "entry": 1656805,
        "event_total": 74,
        "player_name": "Awan Kurniadi",
        "rank": 17,
        "entry_name": "Team Name",
        "rank_sort": 17,
        "last_rank": 18,
        "total": 2272
      },
      {
        "entry": 2304360,
        "event_total": 92,
        "player_name": "Agus Nugroho",
        "rank": 18,
        "entry_name": "Algebra Science fc",
        "rank_sort": 18,
        "last_rank": 24,
        "total": 2269
      },
      {
        "entry": 7345348,
        "event_total": 66,
        "player_name": "Umar Sahid",
        "rank": 19,
        "entry_name": "Coblon FC",
        "rank_sort": 19,
        "last_rank": 19,
        "total": 2260
      },
      {
        "entry": 2246172,
        "event_total": 57,
        "player_name": "Hanif Maulana",
        "rank": 20,
        "entry_name": "Nyaw Faux Gladiators",
        "rank_sort": 20,
        "last_rank": 17,
        "total": 2258
      },
      {
        "entry": 4340949,
        "event_total": 65,
        "player_name": "Asrida Arif",
        "rank": 21,
        "entry_name": "Variabel X",
        "rank_sort": 21,
        "last_rank": 21,
        "total": 2254
      },
      {
        "entry": 1038030,
        "event_total": 62,
        "player_name": "Iwan Ernanto",
        "rank": 22,
        "entry_name": "Hero FC",
        "rank_sort": 22,
        "last_rank": 20,
        "total": 2253
      },
      {
        "entry": 5054762,
        "event_total": 66,
        "player_name": "anaS yoGa",
        "rank": 23,
        "entry_name": "EQUIVALENT",
        "rank_sort": 23,
        "last_rank": 23,
        "total": 2244
      },
      {
        "entry": 1388252,
        "event_total": 56,
        "player_name": "Rudi Prihandoko",
        "rank": 24,
        "entry_name": "Haish",
        "rank_sort": 24,
        "last_rank": 22,
        "total": 2241
      },
      {
        "entry": 527785,
        "event_total": 82,
        "player_name": "Theodore Kurnianto",
        "rank": 25,
        "entry_name": "Kenilworth Shed",
        "rank_sort": 25,
        "last_rank": 28,
        "total": 2223
      },
      {
        "entry": 3642668,
        "event_total": 62,
        "player_name": "Mahardika Eko",
        "rank": 26,
        "entry_name": "Balamuda FC",
        "rank_sort": 26,
        "last_rank": 27,
        "total": 2218
      },
      {
        "entry": 3056267,
        "event_total": 82,
        "player_name": "Adhitya Ghiffari Pramudito",
        "rank": 27,
        "entry_name": "Patnampatnam FC",
        "rank_sort": 27,
        "last_rank": 30,
        "total": 2217
      },
      {
        "entry": 5153737,
        "event_total": 31,
        "player_name": "muhamad gustiana",
        "rank": 28,
        "entry_name": "Granat FC",
        "rank_sort": 28,
        "last_rank": 25,
        "total": 2209
      },
      {
        "entry": 4937530,
        "event_total": 42,
        "player_name": "Naufal Ibnu Amzani",
        "rank": 29,
        "entry_name": "mz2bys",
        "rank_sort": 29,
        "last_rank": 26,
        "total": 2203
      },
      {
        "entry": 5360078,
        "event_total": 53,
        "player_name": "Defi Kurniasih",
        "rank": 30,
        "entry_name": "ONO AE",
        "rank_sort": 30,
        "last_rank": 29,
        "total": 2188
      },
      {
        "entry": 1034333,
        "event_total": 62,
        "player_name": "Panitia Liga",
        "rank": 31,
        "entry_name": "DeGadjah",
        "rank_sort": 31,
        "last_rank": 34,
        "total": 2180
      },
      {
        "entry": 5398356,
        "event_total": 59,
        "player_name": "Muhammad Arinal Haq",
        "rank": 32,
        "entry_name": "To The Bonn",
        "rank_sort": 32,
        "last_rank": 31,
        "total": 2180
      },
      {
        "entry": 171534,
        "event_total": 87,
        "player_name": "Julius Satya Ratnandi",
        "rank": 33,
        "entry_name": "Nologaten FC",
        "rank_sort": 33,
        "last_rank": 36,
        "total": 2176
      },
      {
        "entry": 5358428,
        "event_total": 55,
        "player_name": "Reginald Santoso",
        "rank": 34,
        "entry_name": "Wunderbar",
        "rank_sort": 34,
        "last_rank": 33,
        "total": 2171
      },
      {
        "entry": 3002177,
        "event_total": 38,
        "player_name": "Rian Saputra",
        "rank": 35,
        "entry_name": "Bantoel pride",
        "rank_sort": 35,
        "last_rank": 32,
        "total": 2170
      },
      {
        "entry": 5372595,
        "event_total": 59,
        "player_name": "Fatih Adli",
        "rank": 36,
        "entry_name": "DJ Champs",
        "rank_sort": 36,
        "last_rank": 35,
        "total": 2152
      },
      {
        "entry": 7034076,
        "event_total": 63,
        "player_name": "yudistira arisa nugraha",
        "rank": 37,
        "entry_name": "Keenan Kenzo",
        "rank_sort": 37,
        "last_rank": 38,
        "total": 2146
      },
      {
        "entry": 876530,
        "event_total": 55,
        "player_name": "Robertus Indrakurniawan",
        "rank": 38,
        "entry_name": "Mie Ayam FC",
        "rank_sort": 38,
        "last_rank": 37,
        "total": 2140
      },
      {
        "entry": 3021260,
        "event_total": 77,
        "player_name": "Mister Tepung",
        "rank": 39,
        "entry_name": "SodaGembira",
        "rank_sort": 39,
        "last_rank": 39,
        "total": 2132
      },
      {
        "entry": 2564490,
        "event_total": 68,
        "player_name": "Bintang Apriansyah",
        "rank": 40,
        "entry_name": "Ntangskii",
        "rank_sort": 40,
        "last_rank": 41,
        "total": 2095
      },
      {
        "entry": 5912696,
        "event_total": 36,
        "player_name": "Putra Andika",
        "rank": 41,
        "entry_name": "MNFC",
        "rank_sort": 41,
        "last_rank": 40,
        "total": 2079
      },
      {
        "entry": 5092912,
        "event_total": 61,
        "player_name": "Luthfi Syafi Abdillah",
        "rank": 42,
        "entry_name": "Shicibukai FC",
        "rank_sort": 42,
        "last_rank": 43,
        "total": 2079
      },
      {
        "entry": 2511130,
        "event_total": 44,
        "player_name": "Hinedine Hidane",
        "rank": 43,
        "entry_name": "Dodowi FC",
        "rank_sort": 43,
        "last_rank": 42,
        "total": 2075
      },
      {
        "entry": 3654475,
        "event_total": 81,
        "player_name": "Fredrik Kraeng",
        "rank": 44,
        "entry_name": "Jongkudi FC",
        "rank_sort": 44,
        "last_rank": 49,
        "total": 2057
      },
      {
        "entry": 6330754,
        "event_total": 58,
        "player_name": "Utsman Arifin",
        "rank": 45,
        "entry_name": "Enthulut",
        "rank_sort": 45,
        "last_rank": 45,
        "total": 2056
      },
      {
        "entry": 2424701,
        "event_total": 39,
        "player_name": "Muhammad Radhi",
        "rank": 46,
        "entry_name": "New Hope",
        "rank_sort": 46,
        "last_rank": 44,
        "total": 2046
      },
      {
        "entry": 4244985,
        "event_total": 66,
        "player_name": "Andou Ryuu",
        "rank": 47,
        "entry_name": "CaptainEasy FC",
        "rank_sort": 47,
        "last_rank": 48,
        "total": 2044
      },
      {
        "entry": 7481499,
        "event_total": 39,
        "player_name": "Ridho Y",
        "rank": 48,
        "entry_name": "Harmonics 3th order",
        "rank_sort": 48,
        "last_rank": 46,
        "total": 2033
      },
      {
        "entry": 5043589,
        "event_total": 52,
        "player_name": "Faiz Zulfan",
        "rank": 49,
        "entry_name": "Wota Merah",
        "rank_sort": 49,
        "last_rank": 47,
        "total": 2032
      },
      {
        "entry": 5559771,
        "event_total": 48,
        "player_name": "Dwi Aji W",
        "rank": 50,
        "entry_name": "Orca",
        "rank_sort": 50,
        "last_rank": 50,
        "total": 2014
      }
    ],
    "has_next": true,
    "page": 1
  },
  "edge_processed": true
}